Reproducible and scalable data analysis workflows with targets
…
---

class: middle

```r
tar_read(data) # compare with tar_load()
```
```r
#> # A tibble: 344 x 8
#>    species island bill_length_mm bill_depth_mm flipper_length_…
#>    <fct>   <fct>           <dbl>         <dbl>            <int>
#>  1 Adelie  Torge…           39.1          18.7              181
#>  2 Adelie  Torge…           39.5          17.4              186
#>  3 Adelie  Torge…           40.3          18                195
#>  4 Adelie  Torge…           NA            NA                 NA
#>  5 Adelie  Torge…           36.7          19.3              193
#>  6 Adelie  Torge…           39.3          20.6              190
#>  7 Adelie  Torge…           38.9          17.8              181
#>  8 Adelie  Torge…           39.2          19.6              195
#>  9 Adelie  Torge…           34.1          18.1              193
#> 10 Adelie  Torge…           42            20.2              190
#> # … with 334 more rows, and 3 more variables: body_mass_g <int>,
#> #   sex <fct>, year <int>
```
…
